Env[0]: 3 ; 0
Env[1]: 0, 4,-4,;1
Env[2]: 1, 5,-5; 2
Env[3]: 2 ; 6
Env[4]: 6,9,-9; 13
Env[5]: 13,16,-16;20
Env[6]: 20 ;23
Env[7]: 23, 19,-19 ; 22
Env[8]: 22, 18,-18;21
Env[9]:21 ; 17
Env[10]: 17, 14,-14; 10
Env[11]: 10, 7,-7;3
a: 7,-7,11 ,-11; 8 ,-8, 4,-4
b: 8 ,-8, 12,-12 ; 9,-9 , 5,-5
c: 14,-14, 18,-18 ; 15,-15 , 11,-11 
d: 15,-15 ,  19,-19 ; 16,-16 , 12,-12
TOUT:
ORDER: (((((Env[6] Env[5]) Env[7]) (d)) (((Env[9] Env[8]) Env[10]) c)) (((Env[3] Env[4]) Env[2]) b)) (((Env[0] Env[1]) Env[11]) a)




